<?xml version="1.0" encoding="utf-8"?>
<!-- Generator: Adobe Illustrator 17.0.0, SVG Export Plug-In . SVG Version: 6.00 Build 0)  -->
<!DOCTYPE svg PUBLIC "-//W3C//DTD SVG 1.1//EN" "http://www.w3.org/Graphics/SVG/1.1/DTD/svg11.dtd">
<svg version="1.1" id="Layer_1" xmlns="http://www.w3.org/2000/svg" xmlns:xlink="http://www.w3.org/1999/xlink" x="0px" y="0px"
	 width="1024px" height="1024px" viewBox="0 0 1024 1024" enable-background="new 0 0 1024 1024" xml:space="preserve">
<g id="info">
</g>
<g id="icons">
	<g id="user">
		<ellipse fill="#FFFFFF" cx="510.908" cy="305.813" rx="254.844" ry="305.813"/>
		<path fill="#FFFFFF" d="M1010.402,871.567c-45.872-91.744-132.519-168.197-244.65-214.069
			c-30.581-10.194-66.26-10.194-91.744,5.097c-50.969,30.581-101.938,45.872-163.1,45.872s-112.131-15.291-163.1-45.872
			c-25.484-10.194-61.163-15.291-91.744,0C143.932,708.466,57.285,784.92,11.414,876.664
			c-35.678,66.259,20.388,142.713,96.841,142.713h805.307C990.015,1019.376,1046.08,942.923,1010.402,871.567z"/>
	</g>
</g>
</svg>
